<svg width="23" height="22" viewBox="0 0 23 22" fill="none" xmlns="http://www.w3.org/2000/svg">
<path d="M21.9838 0H1.74377C1.25702 0 0.86377 0.39325 0.86377 0.88V21.12C0.86377 21.6068 1.25702 22 1.74377 22H21.9838C22.4705 22 22.8638 21.6068 22.8638 21.12V0.88C22.8638 0.39325 22.4705 0 21.9838 0ZM19.4428 6.42125H17.6855C16.3078 6.42125 16.041 7.07575 16.041 8.03825V10.1585H19.33L18.901 13.4777H16.041V22H12.6118V13.4805H9.74352V10.1585H12.6118V7.711C12.6118 4.87025 14.347 3.322 16.8825 3.322C18.098 3.322 19.1403 3.41275 19.4455 3.454V6.42125H19.4428Z" fill="#7E8594"/>
</svg>
