<svg width="23" height="22" viewBox="0 0 23 22" fill="none" xmlns="http://www.w3.org/2000/svg">
<path fill-rule="evenodd" clip-rule="evenodd" d="M4.55554 0H18.2205C20.4846 0 22.32 1.8354 22.32 4.09948V17.7644C22.32 20.0285 20.4846 21.8639 18.2205 21.8639H4.55554C2.29146 21.8639 0.456055 20.0285 0.456055 17.7644V4.09948C0.456055 1.8354 2.29146 0 4.55554 0ZM8.65506 16.3979C8.65506 17.9073 7.43146 19.1309 5.92207 19.1309C4.41268 19.1309 3.18908 17.9073 3.18908 16.3979C3.18908 14.8885 4.41268 13.6649 5.92207 13.6649C7.43146 13.6649 8.65506 14.8885 8.65506 16.3979ZM3.18908 10.9321C5.36358 10.9321 7.44902 11.7959 8.98663 13.3335C10.5242 14.8711 11.3881 16.9565 11.3881 19.131H14.121C14.121 16.2317 12.9693 13.4511 10.9191 11.401C8.869 9.35084 6.08842 8.19908 3.18908 8.19908V10.9321ZM8.41843 6.5062C6.76052 5.81947 4.98359 5.46602 3.18908 5.46602V2.73303C7.53809 2.73303 11.709 4.46066 14.7842 7.53587C17.8594 10.6111 19.587 14.782 19.587 19.131H16.854C16.854 17.3365 16.5006 15.5595 15.8138 13.9016C15.1271 12.2437 14.1206 10.7373 12.8517 9.46839C11.5828 8.19948 10.0763 7.19293 8.41843 6.5062Z" fill="#7E8594"/>
</svg>
